[gd_scene load_steps=7 format=2]

[ext_resource path="res://Arachne/Arachne.gd" type="Script" id=1]
[ext_resource path="res://Arachne/Arachne.png" type="Texture" id=2]

[sub_resource type="Animation" id=1]

length = 0.4
loop = true
step = 0.1
tracks/0/type = "value"
tracks/0/path = NodePath(".:frame")
tracks/0/interp = 1
tracks/0/loop_wrap = true
tracks/0/imported = false
tracks/0/enabled = true
tracks/0/keys = {
"times": PoolRealArray( 0, 0.1, 0.2, 0.3 ),
"transitions": PoolRealArray( 1, 1, 1, 1 ),
"update": 1,
"values": [ 6, 7, 8, 7 ]
}

[sub_resource type="Animation" id=2]

length = 0.4
loop = true
step = 0.1
tracks/0/type = "value"
tracks/0/path = NodePath(".:frame")
tracks/0/interp = 1
tracks/0/loop_wrap = true
tracks/0/imported = false
tracks/0/enabled = true
tracks/0/keys = {
"times": PoolRealArray( 0, 0.1, 0.2, 0.3 ),
"transitions": PoolRealArray( 1, 1, 1, 1 ),
"update": 1,
"values": [ 9, 10, 11, 10 ]
}

[sub_resource type="Animation" id=3]

length = 0.4
loop = true
step = 0.1
tracks/0/type = "value"
tracks/0/path = NodePath(".:frame")
tracks/0/interp = 1
tracks/0/loop_wrap = true
tracks/0/imported = false
tracks/0/enabled = true
tracks/0/keys = {
"times": PoolRealArray( 0, 0.1, 0.2, 0.3 ),
"transitions": PoolRealArray( 1, 1, 1, 1 ),
"update": 1,
"values": [ 3, 4, 5, 4 ]
}

[sub_resource type="Animation" id=4]

length = 0.4
loop = true
step = 0.1
tracks/0/type = "value"
tracks/0/path = NodePath(".:frame")
tracks/0/interp = 1
tracks/0/loop_wrap = true
tracks/0/imported = false
tracks/0/enabled = true
tracks/0/keys = {
"times": PoolRealArray( 0, 0.1, 0.2, 0.3 ),
"transitions": PoolRealArray( 1, 1, 1, 1 ),
"update": 1,
"values": [ 0, 1, 2, 1 ]
}

[node name="Arachne" type="PathFollow2D"]

offset = 0.0
h_offset = 0.0
v_offset = 0.0
rotate = false
cubic_interp = false
loop = false
lookahead = 4.0
script = ExtResource( 1 )
_sections_unfolded = [ "Animation", "Transform" ]
speed = 360

[node name="Sprite" type="Sprite" parent="." index="0"]

texture = ExtResource( 2 )
vframes = 4
hframes = 3
frame = 6
_sections_unfolded = [ "Animation" ]

[node name="AnimationPlayer" type="AnimationPlayer" parent="Sprite" index="0"]

root_node = NodePath("..")
autoplay = ""
playback_process_mode = 1
playback_default_blend_time = 0.0
playback_speed = 1.0
anims/walk_down = SubResource( 1 )
anims/walk_left = SubResource( 2 )
anims/walk_right = SubResource( 3 )
anims/walk_up = SubResource( 4 )
blend_times = [  ]
_sections_unfolded = [ "Playback Options" ]


